<svg id="Group_9" data-name="Group 9" xmlns="http://www.w3.org/2000/svg" width="44.576" height="44.576" viewBox="0 0 44.576 44.576">
  <g id="Ellipse_3" data-name="Ellipse 3" fill="none" stroke="#00402f" stroke-width="3">
    <circle cx="22.288" cy="22.288" r="22.288" stroke="none"/>
    <circle cx="22.288" cy="22.288" r="20.788" fill="none"/>
  </g>
  <g id="Icon_feather-plus" data-name="Icon feather-plus" transform="translate(11.753 11.753)">
    <path id="Path_6" data-name="Path 6" d="M18,7.5V28.57" transform="translate(-7.465 -7.5)" fill="none" stroke="#00402f" stroke-linecap="round" stroke-linejoin="round" stroke-width="3"/>
    <path id="Path_7" data-name="Path 7" d="M7.5,18H28.57" transform="translate(-7.5 -7.465)" fill="none" stroke="#00402f" stroke-linecap="round" stroke-linejoin="round" stroke-width="3"/>
  </g>
</svg>
